{
    "name":"Pradeep",
    "skills": ["Java", "Javascript", "AWS", "Kubernetes"],
    "occupation": "Freelancer",
    "location":"Bangalore",
    "companies":["Intuit", "Hitachi- Data Systems", "Vidyo"]
}
